…
Next is to obtain the number of rounds that each team played in each game. In summary, there is a variable called total_rounds which tracks the total number of rounds in a game (e.g. if the game had ended on round 1A, this value would be 1, and if the game ended on 12B, this would be 24). One can verify that the following mutate should provide answers to the side-specific question of the number of rounds taken.

total_rounds = game_side_pair %>%
  left_join(summary %>%
              select(game_number, total_rounds),
            by = "game_number") %>%
  mutate(offense_rounds = ifelse(side == "A", ceiling(total_rounds / 2), floor(total_rounds / 2)),
         defense_rounds = ifelse(side == "A", floor(total_rounds / 2), ceiling(total_rounds / 2))) %>%
  ungroup() %>%
  select(game_number, offense_rounds, defense_rounds)

total_rounds

## # A tibble: 41 x 3
##    game_number offense_rounds defense_rounds
##          <int>          <dbl>          <dbl>
##  1          93             21             22
##  2          38             24             25
##  3          66             24             25
##  4          46             27             26
##  5          70             26             25
##  6           3             14             14
##  7          81             26             26
##  8          82             24             24
##  9          63             27             28
## 10          86             25             25
## # ... with 31 more rows
…
expanded_defense = defense %>%
      complete(
        expand(defense,
               round_num,
               shot_order),
        fill = list(total = 0,
                    off_def = "defense"))

expanded_game = bind_rows(expanded_offense,
                              expanded_defense)

expanded_game

## # A tibble: 86 x 4
##    round_num shot_order off_def total
##    <fct>     <fct>      <chr>   <dbl>
##  1 1         1          offense     1
##  2 1         2          offense     0
##  3 2         1          offense     0
##  4 2         2          offense     0
##  5 3         1          offense     1
##  6 3         2          offense     0
##  7 4         1          offense     0
##  8 4         2          offense     0
##  9 5         1          offense     0
## 10 5         2          offense     0
## # ... with 76 more rows
…
